<svg width="30" height="30" viewBox="0 0 30 30" fill="none" xmlns="http://www.w3.org/2000/svg">
<path d="M22.5 2.5H18.75C17.0924 2.5 15.5027 3.15848 14.3306 4.33058C13.1585 5.50269 12.5 7.0924 12.5 8.75V12.5H8.75V17.5H12.5V27.5H17.5V17.5H21.25L22.5 12.5H17.5V8.75C17.5 8.41848 17.6317 8.10054 17.8661 7.86612C18.1005 7.6317 18.4185 7.5 18.75 7.5H22.5V2.5Z" fill="#DA291C"/>
</svg>
